results/power_section_measurement/PWM_output_across_load/F0015CH1.CSV

Record Length,2.500000e+03,,  -0.000012500000,  12.80000,
Sample Interval,1.000000e-08,,  -0.000012490000,  13.60000,
Trigger Point,1.250000000000e+03,,  -0.000012480000,  13.60000,
,,,  -0.000012470000,  14.40000,
,,,  -0.000012460000,  13.60000,
,,,  -0.000012450000,  13.60000,
Source,CH1,,  -0.000012440000,  14.40000,
Vertical Units,V,,  -0.000012430000,  14.40000,
Vertical Scale,2.000000e+01,,  -0.000012420000,  13.60000,
Vertical Offset,0.000000e+00,,  -0.000012410000,  14.40000,
Horizontal Units,s,,  -0.000012400000,  13.60000,
Horizontal Scale,2.500000e-06,,  -0.000012390000,  14.40000,
Pt Fmt,Y,,  -0.000012380000,  14.40000,
Yzero,0.000000e+00,,  -0.000012370000,  15.20000,
Probe Atten,1.000000e+01,,  -0.000012360000,  13.60000,
Model Number,TDS2024B,,  -0.000012350000,  12.80000,
Serial Number,C046999,,  -0.000012340000,  13.60000,
Firmware Version,FV:v22.11,,  -0.000012330000,  13.60000,
,,,-00.000012320000,  14.40000,
,,,-00.000012310000,  13.60000,
,,,-00.000012300000,  13.60000,
,,,-00.000012290000,  13.60000,
,,,-00.000012280000,  14.40000,
,,,-00.000012270000,  14.40000,
,,,-00.000012260000,  13.60000,
,,,-00.000012250000,  14.40000,
,,,-00.000012240000,  13.60000,
,,,-00.000012230000,  13.60000,
,,,-00.000012220000,  14.40000,
,,,-00.000012210000,  14.40000,
,,,-00.000012200000,  14.40000,
,,,-00.000012190000,  14.40000,
,,,-00.000012180000,  14.40000,
,,,-00.000012170000,  15.20000,
,,,-00.000012160000,  14.40000,
,,,-00.000012150000,  14.40000,
,,,-00.000012140000,  14.40000,
,,,-00.000012130000,  13.60000,
,,,-00.000012120000,  13.60000,
,,,-00.000012110000,  12.80000,
,,,-00.000012100000,  14.40000,
,,,-00.000012090000,  13.60000,
,,,-00.000012080000,  14.40000,
,,,-00.000012070000,  14.40000,
,,,-00.000012060000,  15.20000,
,,,-00.000012050000,  14.40000,
,,,-00.000012040000,  13.60000,
,,,-00.000012030000,  13.60000,
,,,-00.000012020000,  14.40000,
,,,-00.000012010000,  14.40000,
,,,-00.000012000000,  14.40000,
,,,-00.000011990000,  13.60000,
,,,-00.000011980000,  15.20000,
,,,-00.000011970000,  14.40000,
,,,-00.000011960000,  13.60000,
,,,-00.000011950000,  14.40000,
,,,-00.000011940000,  14.40000,
,,,-00.000011930000,  14.40000,
,,,-00.000011920000,  15.20000,
,,,-00.000011910000,  13.60000,
,,,-00.000011900000,  15.20000,
,,,-00.000011890000,  15.20000,
,,,-00.000011880000,  14.40000,
,,,-00.000011870000,  14.40000,
,,,-00.000011860000,  14.40000,
,,,-00.000011850000,  14.40000,
,,,-00.000011840000,  13.60000,
,,,-00.000011830000,  13.60000,
,,,-00.000011820000,  15.20000,
,,,-00.000011810000,  13.60000,
,,,-00.000011800000,  15.20000,
,,,-00.000011790000,  14.40000,
,,,-00.000011780000,  14.40000,
,,,-00.000011770000,  14.40000,
,,,-00.000011760000,  14.40000,
,,,-00.000011750000,  14.40000,
,,,-00.000011740000,  15.20000,
,,,-00.000011730000,  15.20000,
,,,-00.000011720000,  14.40000,
,,,-00.000011710000,  13.60000,
,,,-00.000011700000,  14.40000,
,,,-00.000011690000,  14.40000,
,,,-00.000011680000,  15.20000,
,,,-00.000011670000,  13.60000,
,,,-00.000011660000,  15.20000,
,,,-00.000011650000,  15.20000,
,,,-00.000011640000,  15.20000,
,,,-00.000011630000,  16.00000,
,,,-00.000011620000,  15.20000,
,,,-00.000011610000,  14.40000,
,,,-00.000011600000,  14.40000,
,,,-00.000011590000,  15.20000,
,,,-00.000011580000,  15.20000,
,,,-00.000011570000,  14.40000,
,,,-00.000011560000,  15.20000,
,,,-00.000011550000,  14.40000,
,,,-00.000011540000,  15.20000,
,,,-00.000011530000,  15.20000,
,,,-00.000011520000,  13.60000,
,,,-00.000011510000,  13.60000,
,,,-00.000011500000,  15.20000,
,,,-00.000011490000,  14.40000,
,,,-00.000011480000,  15.20000,
,,,-00.000011470000,  14.40000,
,,,-00.000011460000,  14.40000,
,,,-00.000011450000,  15.20000,
,,,-00.000011440000,  14.40000,
,,,-00.000011430000,  14.40000,
,,,-00.000011420000,  14.40000,
,,,-00.000011410000,  15.20000,
,,,-00.000011400000,  15.20000,
,,,-00.000011390000,  15.20000,
,,,-00.000011380000,  15.20000,
,,,-00.000011370000,  15.20000,
,,,-00.000011360000,  14.40000,
,,,-00.000011350000,  15.20000,
,,,-00.000011340000,  15.20000,
,,,-00.000011330000,  14.40000,
,,,-00.000011320000,  13.60000,
,,,-00.000011310000,  14.40000,
,,,-00.000011300000,  15.20000,
,,,-00.000011290000,  16.00000,
,,,-00.000011280000,  15.20000,
,,,-00.000011270000,  13.60000,
,,,-00.000011260000,  14.40000,
,,,-00.000011250000,  14.40000,
,,,-00.000011240000,  15.20000,
,,,-00.000011230000,  15.20000,
,,,-00.000011220000,  15.20000,
,,,-00.000011210000,  15.20000,
,,,-00.000011200000,  16.00000,
,,,-00.000011190000,  15.20000,
,,,-00.000011180000,  15.20000,
,,,-00.000011170000,  14.40000,
,,,-00.000011160000,  16.00000,
,,,-00.000011150000,  14.40000,
,,,-00.000011140000,  14.40000,
,,,-00.000011130000,  14.40000,
,,,-00.000011120000,  14.40000,
,,,-00.000011110000,  14.40000,
,,,-00.000011100000,  14.40000,
,,,-00.000011090000,  16.00000,
,,,-00.000011080000,  16.00000,
,,,-00.000011070000,  15.20000,
,,,-00.000011060000,  16.00000,
,,,-00.000011050000,  15.20000,
,,,-00.000011040000,  15.20000,
,,,-00.000011030000,  15.20000,
,,,-00.000011020000,  15.20000,
,,,-00.000011010000,  14.40000,
,,,-00.000011000000,  15.20000,
,,,-00.000010990000,  16.00000,
,,,-00.000010980000,  14.40000,
,,,-00.000010970000,  14.40000,
,,,-00.000010960000,  16.00000,
,,,-00.000010950000,  14.40000,
,,,-00.000010940000,  15.20000,
,,,-00.000010930000,  16.00000,
,,,-00.000010920000,  15.20000,
,,,-00.000010910000,  15.20000,
,,,-00.000010900000,  14.40000,
,,,-00.000010890000,  15.20000,
,,,-00.000010880000,  16.00000,
,,,-00.000010870000,  15.20000,
,,,-00.000010860000,  15.20000,
,,,-00.000010850000,  15.20000,
,,,-00.000010840000,  15.20000,
,,,-00.000010830000,  15.20000,
,,,-00.000010820000,  15.20000,
,,,-00.000010810000,  15.20000,
,,,-00.000010800000,  15.20000,
,,,-00.000010790000,  15.20000,
,,,-00.000010780000,  15.20000,
,,,-00.000010770000,  15.20000,
,,,-00.000010760000,  14.40000,
,,,-00.000010750000,  14.40000,
,,,-00.000010740000,  16.00000,
,,,-00.000010730000,  15.20000,
,,,-00.000010720000,  14.40000,
,,,-00.000010710000,  15.20000,
,,,-00.000010700000,  15.20000,
,,,-00.000010690000,  14.40000,
,,,-00.000010680000,  15.20000,
,,,-00.000010670000,  15.20000,
,,,-00.000010660000,  16.00000,
,,,-00.000010650000,  15.20000,
,,,-00.000010640000,  15.20000,
,,,-00.000010630000,  16.00000,
,,,-00.000010620000,  15.20000,
,,,-00.000010610000,  14.40000,
,,,-00.000010600000,  16.00000,
,,,-00.000010590000,  14.40000,
,,,-00.000010580000,  15.20000,
,,,-00.000010570000,  15.20000,
,,,-00.000010560000,  15.20000,
,,,-00.000010550000,  14.40000,
,,,-00.000010540000,  14.40000,
,,,-00.000010530000,  15.20000,
,,,-00.000010520000,  15.20000,
,,,-00.000010510000,  15.20000,
,,,-00.000010500000,  15.20000,
,,,-00.000010490000,  16.00000,
,,,-00.000010480000,  14.40000,
,,,-00.000010470000,  15.20000,
,,,-00.000010460000,  15.20000,
,,,-00.000010450000,  14.40000,
,,,-00.000010440000,  15.20000,
,,,-00.000010430000,  15.20000,
,,,-00.000010420000,  15.20000,
,,,-00.000010410000,  15.20000,
,,,-00.000010400000,  14.40000,
,,,-00.000010390000,  15.20000,
,,,-00.000010380000,  15.20000,
,,,-00.000010370000,  16.00000,
,,,-00.000010360000,  15.20000,
,,,-00.000010350000,  14.40000,
,,,-00.000010340000,  15.20000,
,,,-00.000010330000,  15.20000,
,,,-00.000010320000,  14.40000,
,,,-00.000010310000,  14.40000,
,,,-00.000010300000,  14.40000,
,,,-00.000010290000,  15.20000,
,,,-00.000010280000,  14.40000,
,,,-00.000010270000,  16.00000,
,,,-00.000010260000,  13.60000,
,,,-00.000010250000,  15.20000,
,,,-00.000010240000,  15.20000,
,,,-00.000010230000,  15.20000,
,,,-00.000010220000,  15.20000,
,,,-00.000010210000,  16.00000,
,,,-00.000010200000,  14.40000,
,,,-00.000010190000,  15.20000,
,,,-00.000010180000,  15.20000,
,,,-00.000010170000,  14.40000,
,,,-00.000010160000,  15.20000,
,,,-00.000010150000,  15.20000,
,,,-00.000010140000,  15.20000,
,,,-00.000010130000,  14.40000,
,,,-00.000010120000,  14.40000,
,,,-00.000010110000,  15.20000,
,,,-00.000010100000,  15.20000,
,,,-00.000010090000,  16.00000,
,,,-00.000010080000,  16.00000,
,,,-00.000010070000,  16.80000,
,,,-00.000010060000,  14.40000,
,,,-00.000010050000,  15.20000,
,,,-00.000010040000,  15.20000,
,,,-00.000010030000,  14.40000,
,,,-00.000010020000,  13.60000,
,,,-00.000010010000,  15.20000,
,,,-00.000010000000,  14.40000,
,,,-00.000009990000,  14.40000,
,,,-00.000009980000,  14.40000,
,,,-00.000009970000,  15.20000,
,,,-00.000009960000,  15.20000,
,,,-00.000009950000,  15.20000,
,,,-00.000009940000,  15.20000,
,,,-00.000009930000,  14.40000,
,,,-00.000009920000,  15.20000,
,,,-00.000009910000,  14.40000,
,,,-00.000009900000,  14.40000,
,,,-00.000009890000,  16.00000,
,,,-00.000009880000,  15.20000,
,,,-00.000009870000,  14.40000,
,,,-00.000009860000,  14.40000,
,,,-00.000009850000,  15.20000,
,,,-00.000009840000,  15.20000,
,,,-00.000009830000,  14.40000,
,,,-00.000009820000,  14.40000,
,,,-00.000009810000,  14.40000,
,,,-00.000009800000,  14.40000,
,,,-00.000009790000,  14.40000,
,,,-00.000009780000,  14.40000,
,,,-00.000009770000,  14.40000,
,,,-00.000009760000,  15.20000,
,,,-00.000009750000,  15.20000,
,,,-00.000009740000,  15.20000,
,,,-00.000009730000,  13.60000,
,,,-00.000009720000,  15.20000,
,,,-00.000009710000,  15.20000,
,,,-00.000009700000,  14.40000,
,,,-00.000009690000,  13.60000,
,,,-00.000009680000,  15.20000,
,,,-00.000009670000,  14.40000,
,,,-00.000009660000,  14.40000,
,,,-00.000009650000,  15.20000,
,,,-00.000009640000,  14.40000,
,,,-00.000009630000,  14.40000,
,,,-00.000009620000,  14.40000,
,,,-00.000009610000,  15.20000,
,,,-00.000009600000,  14.40000,
,,,-00.000009590000,  14.40000,
,,,-00.000009580000,  14.40000,
,,,-00.000009570000,  14.40000,
,,,-00.000009560000,  14.40000,
,,,-00.000009550000,  15.20000,
,,,-00.000009540000,  13.60000,
,,,-00.000009530000,  15.20000,
,,,-00.000009520000,  14.40000,
,,,-00.000009510000,  15.20000,
,,,-00.000009500000,  14.40000,
,,,-00.000009490000,  14.40000,
,,,-00.000009480000,  14.40000,
,,,-00.000009470000,  14.40000,
,,,-00.000009460000,  14.40000,
,,,-00.000009450000,  13.60000,
,,,-00.000009440000,  14.40000,
,,,-00.000009430000,  13.60000,
,,,-00.000009420000,  13.60000,
,,,-00.000009410000,  14.40000,
,,,-00.000009400000,  15.20000,
,,,-00.000009390000,  14.40000,
,,,-00.000009380000,  13.60000,
,,,-00.000009370000,  14.40000,
,,,-00.000009360000,  14.40000,
,,,-00.000009350000,  13.60000,
,,,-00.000009340000,  13.60000,
,,,-00.000009330000,  15.20000,
,,,-00.000009320000,  14.40000,
,,,-00.000009310000,  14.40000,
,,,-00.000009300000,  14.40000,
,,,-00.000009290000,  15.20000,
,,,-00.000009280000,  14.40000,
,,,-00.000009270000,  14.40000,
,,,-00.000009260000,  14.40000,
,,,-00.000009250000,  15.20000,
,,,-00.000009240000,  13.60000,
,,,-00.000009230000,  14.40000,
,,,-00.000009220000,  14.40000,
,,,-00.000009210000,  13.60000,
,,,-00.000009200000,  14.40000,
,,,-00.000009190000,  15.20000,
,,,-00.000009180000,  14.40000,
,,,-00.000009170000,  15.20000,
,,,-00.000009160000,  13.60000,
,,,-00.000009150000,  14.40000,
,,,-00.000009140000,  15.20000,
,,,-00.000009130000,  14.40000,
,,,-00.000009120000,  15.20000,
,,,-00.000009110000,  14.40000,
,,,-00.000009100000,  14.40000,
,,,-00.000009090000,  13.60000,
,,,-00.000009080000,  15.20000,
,,,-00.000009070000,  13.60000,
,,,-00.000009060000,  13.60000,
,,,-00.000009050000,  13.60000,
,,,-00.000009040000,  13.60000,
,,,-00.000009030000,  14.40000,
,,,-00.000009020000,  13.60000,
,,,-00.000009010000,  14.40000,
,,,-00.000009000000,  13.60000,
,,,-00.000008990000,  13.60000,
,,,-00.000008980000,  13.60000,
,,,-00.000008970000,  13.60000,
,,,-00.000008960000,  13.60000,
,,,-00.000008950000,  14.40000,
,,,-00.000008940000,  13.60000,
,,,-00.000008930000,  15.20000,
,,,-00.000008920000,  13.60000,
,,,-00.000008910000,  12.80000,
,,,-00.000008900000,  14.40000,
,,,-00.000008890000,  14.40000,
,,,-00.000008880000,  13.60000,
,,,-00.000008870000,  13.60000,
,,,-00.000008860000,  12.80000,
,,,-00.000008850000,  14.40000,
,,,-00.000008840000,  13.60000,
,,,-00.000008830000,  14.40000,
,,,-00.000008820000,  14.40000,
,,,-00.000008810000,  14.40000,
,,,-00.000008800000,  13.60000,
,,,-00.000008790000,  14.40000,
,,,-00.000008780000,  14.40000,
,,,-00.000008770000,  13.60000,
,,,-00.000008760000,  15.20000,
,,,-00.000008750000,  13.60000,
,,,-00.000008740000,  13.60000,
,,,-00.000008730000,  14.40000,
,,,-00.000008720000,  14.40000,
,,,-00.000008710000,  14.40000,
,,,-00.000008700000,  13.60000,
,,,-00.000008690000,  14.40000,
,,,-00.000008680000,  13.60000,
,,,-00.000008670000,  13.60000,
,,,-00.000008660000,  13.60000,
,,,-00.000008650000,  14.40000,
,,,-00.000008640000,  13.60000,
,,,-00.000008630000,  12.80000,
,,,-00.000008620000,  15.20000,
,,,-00.000008610000,  13.60000,
,,,-00.000008600000,  13.60000,
,,,-00.000008590000,  13.60000,
,,,-00.000008580000,  14.40000,
,,,-00.000008570000,  14.40000,
,,,-00.000008560000,  14.40000,
,,,-00.000008550000,  14.40000,
,,,-00.000008540000,  12.80000,
,,,-00.000008530000,  13.60000,
,,,-00.000008520000,  13.60000,
,,,-00.000008510000,  12.80000,
,,,-00.000008500000,  12.80000,
,,,-00.000008490000,  13.60000,
,,,-00.000008480000,  13.60000,
,,,-00.000008470000,  14.40000,
,,,-00.000008460000,  12.80000,
,,,-00.000008450000,  13.60000,
,,,-00.000008440000,  13.60000,
,,,-00.000008430000,  14.40000,
,,,-00.000008420000,  12.80000,
,,,-00.000008410000,  13.60000,
,,,-00.000008400000,  12.80000,
,,,-00.000008390000,  13.60000,
,,,-00.000008380000,  13.60000,
,,,-00.000008370000,  13.60000,
,,,-00.000008360000,  12.80000,
,,,-00.000008350000,  12.80000,
,,,-00.000008340000,  12.80000,
,,,-00.000008330000,  13.60000,
,,,-00.000008320000,  13.60000,
,,,-00.000008310000,  13.60000,
,,,-00.000008300000,  12.80000,
,,,-00.000008290000,  14.40000,
,,,-00.000008280000,  12.80000,
,,,-00.000008270000,  12.80000,
,,,-00.000008260000,  12.80000,
,,,-00.000008250000,  13.60000,
,,,-00.000008240000,  13.60000,
,,,-00.000008230000,  14.40000,
,,,-00.000008220000,  12.80000,
,,,-00.000008210000,  13.60000,
,,,-00.000008200000,  13.60000,
,,,-00.000008190000,  12.80000,
,,,-00.000008180000,  13.60000,
,,,-00.000008170000,  12.00000,
,,,-00.000008160000,  12.80000,
,,,-00.000008150000,  13.60000,
,,,-00.000008140000,  12.00000,
,,,-00.000008130000,  13.60000,
,,,-00.000008120000,  12.00000,
,,,-00.000008110000,  12.80000,
,,,-00.000008100000,  13.60000,
,,,-00.000008090000,  13.60000,
,,,-00.000008080000,  12.00000,
,,,-00.000008070000,  12.80000,
,,,-00.000008060000,  12.80000,
,,,-00.000008050000,  12.00000,
,,,-00.000008040000,  12.00000,
,,,-00.000008030000,  12.80000,
,,,-00.000008020000,  12.80000,
,,,-00.000008010000,  12.80000,
,,,-00.000008000000,  12.80000,
,,,-00.000007990000,  12.80000,
,,,-00.000007980000,  12.80000,
,,,-00.000007970000,  14.40000,
,,,-00.000007960000,  13.60000,
,,,-00.000007950000,  12.80000,
,,,-00.000007940000,  12.80000,
,,,-00.000007930000,  12.80000,
,,,-00.000007920000,  13.60000,
,,,-00.000007910000,  13.60000,
,,,-00.000007900000,  12.80000,
,,,-00.000007890000,  12.80000,
,,,-00.000007880000,  12.80000,
,,,-00.000007870000,  12.00000,
,,,-00.000007860000,  12.80000,
,,,-00.000007850000,  13.60000,
,,,-00.000007840000,  13.60000,
,,,-00.000007830000,  12.80000,
,,,-00.000007820000,  13.60000,
,,,-00.000007810000,  12.00000,
,,,-00.000007800000,  12.80000,
,,,-00.000007790000,  12.00000,
,,,-00.000007780000,  12.00000,
,,,-00.000007770000,  13.60000,
,,,-00.000007760000,  12.80000,
,,,-00.000007750000,  12.80000,
,,,-00.000007740000,  12.00000,
,,,-00.000007730000,  13.60000,
,,,-00.000007720000,  13.60000,
,,,-00.000007710000,  12.00000,
,,,-00.000007700000,  13.60000,
,,,-00.000007690000,  12.00000,
,,,-00.000007680000,  12.80000,
,,,-00.000007670000,  12.80000,
,,,-00.000007660000,  11.20000,
,,,-00.000007650000,  12.80000,
,,,-00.000007640000,  12.00000,
,,,-00.000007630000,  12.80000,
,,,-00.000007620000,  12.00000,
,,,-00.000007610000,  12.80000,
,,,-00.000007600000,  12.80000,
,,,-00.000007590000,  13.60000,
,,,-00.000007580000,  12.00000,
,,,-00.000007570000,  12.00000,
,,,-00.000007560000,  12.80000,
,,,-00.000007550000,  12.80000,
,,,-00.000007540000,  12.80000,
,,,-00.000007530000,  12.80000,
,,,-00.000007520000,  12.80000,
,,,-00.000007510000,  12.00000,
,,,-00.000007500000,  12.80000,
,,,-00.000007490000,  13.60000,
,,,-00.000007480000,  12.80000,
,,,-00.000007470000,  12.00000,
,,,-00.000007460000,  12.00000,
,,,-00.000007450000,  12.80000,
,,,-00.000007440000,  12.80000,
,,,-00.000007430000,  13.60000,
,,,-00.000007420000,  12.00000,
,,,-00.000007410000,  11.20000,
,,,-00.000007400000,  12.00000,
,,,-00.000007390000,  12.80000,
,,,-00.000007380000,  12.00000,
,,,-00.000007370000,  11.20000,
,,,-00.000007360000,  12.00000,
,,,-00.000007350000,  12.80000,
,,,-00.000007340000,  12.00000,
,,,-00.000007330000,  13.60000,
,,,-00.000007320000,  12.00000,
,,,-00.000007310000,  12.80000,
,,,-00.000007300000,  12.80000,
,,,-00.000007290000,  12.00000,
,,,-00.000007280000,  12.80000,
,,,-00.000007270000,  12.00000,
,,,-00.000007260000,  12.80000,
,,,-00.000007250000,  12.80000,
,,,-00.000007240000,  12.80000,
,,,-00.000007230000,  12.00000,
,,,-00.000007220000,  12.00000,
,,,-00.000007210000,  13.60000,
,,,-00.000007200000,  12.80000,
,,,-00.000007190000,  12.00000,
,,,-00.000007180000,  11.20000,
,,,-00.000007170000,  12.00000,
,,,-00.000007160000,  12.80000,
,,,-00.000007150000,  12.00000,
,,,-00.000007140000,  12.80000,
,,,-00.000007130000,  12.00000,
,,,-00.000007120000,  12.00000,
,,,-00.000007110000,  12.80000,
,,,-00.000007100000,  12.80000,
,,,-00.000007090000,  11.20000,
,,,-00.000007080000,  12.00000,
,,,-00.000007070000,  12.00000,
,,,-00.000007060000,  11.20000,
,,,-00.000007050000,  11.20000,
,,,-00.000007040000,  12.80000,
,,,-00.000007030000,  12.80000,
,,,-00.000007020000,  12.00000,
,,,-00.000007010000,  11.20000,
,,,-00.000007000000,  12.00000,
,,,-00.000006990000,  12.80000,
,,,-00.000006980000,  12.80000,
,,,-00.000006970000,  12.00000,
,,,-00.000006960000,  12.00000,
,,,-00.000006950000,  13.60000,
,,,-00.000006940000,  12.00000,
,,,-00.000006930000,  11.20000,
,,,-00.000006920000,  12.00000,
,,,-00.000006910000,  12.00000,
,,,-00.000006900000,  11.20000,
,,,-00.000006890000,  12.00000,
,,,-00.000006880000,  11.20000,
,,,-00.000006870000,  12.00000,
,,,-00.000006860000,  11.20000,
,,,-00.000006850000,  12.00000,
,,,-00.000006840000,  12.80000,
,,,-00.000006830000,  12.00000,
,,,-00.000006820000,  12.00000,
,,,-00.000006810000,  12.00000,
,,,-00.000006800000,  11.20000,
,,,-00.000006790000,  12.00000,
,,,-00.000006780000,  12.80000,
,,,-00.000006770000,  12.00000,
,,,-00.000006760000,  11.20000,
,,,-00.000006750000,  12.00000,
,,,-00.000006740000,  12.00000,
,,,-00.000006730000,  12.00000,
,,,-00.000006720000,  11.20000,
,,,-00.000006710000,  12.00000,
,,,-00.000006700000,  11.20000,
,,,-00.000006690000,  11.20000,
,,,-00.000006680000,  12.00000,
,,,-00.000006670000,  11.20000,
,,,-00.000006660000,  11.20000,
,,,-00.000006650000,  12.00000,
,,,-00.000006640000,  12.00000,
,,,-00.000006630000,  12.00000,
,,,-00.000006620000,  11.20000,
,,,-00.000006610000,  11.20000,
,,,-00.000006600000,  11.20000,
,,,-00.000006590000,  11.20000,
,,,-00.000006580000,  11.20000,
,,,-00.000006570000,  12.00000,
,,,-00.000006560000,  11.20000,
,,,-00.000006550000,  12.80000,
,,,-00.000006540000,  12.00000,
,,,-00.000006530000,  12.00000,
,,,-00.000006520000,  12.00000,
,,,-00.000006510000,  11.20000,
,,,-00.000006500000,  12.00000,
,,,-00.000006490000,  12.00000,
,,,-00.000006480000,  11.20000,
,,,-00.000006470000,  12.80000,
,,,-00.000006460000,  11.20000,
,,,-00.000006450000,  12.00000,
,,,-00.000006440000,  12.00000,
,,,-00.000006430000,  11.20000,
,,,-00.000006420000,  12.00000,
,,,-00.000006410000,  12.00000,
,,,-00.000006400000,  12.00000,
,,,-00.000006390000,  12.00000,
,,,-00.000006380000,  11.20000,
,,,-00.000006370000,  11.20000,
